{
 "101": {
  "map": 0.0001455106884452904,
  "ndcg": 0.19557109454189203
 },
 "102": {
  "map": 0.00011975500743646774,
  "ndcg": 0.1737195127187222
 },
 "103": {
  "map": 0.000267086751985072,
  "ndcg": 0.24565446556374562
 },
 "104": {
  "map": 0.00023503283369133627,
  "ndcg": 0.2380445117000876
 },
 "105": {
  "map": 0.000203998074408531,
  "ndcg": 0.210988994732464
 },
 "106": {
  "map": 0.00017441913543612188,
  "ndcg": 0.2253602937050504
 },
 "107": {
  "map": 0.00017497527063819437,
  "ndcg": 0.20312011342695027
 },
 "108": {
  "map": 0.0004617142482657187,
  "ndcg": 0.28799846007165114
 },
 "109": {
  "map": 0.00015697822147970307,
  "ndcg": 0.13805748558122669
 },
 "110": {
  "map": 0.0018791595034554176,
  "ndcg": 0.4137277800194976
 },
 "111": {
  "map": 0.00046146843070923437,
  "ndcg": 0.29829026751089965
 },
 "112": {
  "map": 6.582172305439912e-05,
  "ndcg": 0.14443801838920034
 },
 "113": {
  "map": 0.00015464230562152047,
  "ndcg": 0.20476177425647363
 },
 "114": {
  "map": 0.0006138499590034405,
  "ndcg": 0.3139241330717463
 },
 "115": {
  "map": 0.0006381155304390321,
  "ndcg": 0.2880310416704121
 },
 "116": {
  "map": 0.00010883242112977837,
  "ndcg": 0.16761898651200652
 },
 "117": {
  "map": 0.0001335582163467521,
  "ndcg": 0.1976742851623196
 },
 "118": {
  "map": 0.0011311871517784935,
  "ndcg": 0.35837050550003924
 },
 "119": {
  "map": 0.0010022417521155721,
  "ndcg": 0.3646321844786525
 },
 "120": {
  "map": 0.00022286440044607978,
  "ndcg": 0.22506423921758856
 },
 "121": {
  "map": 0.0003429963553513564,
  "ndcg": 0.24527761782030116
 },
 "122": {
  "map": 0.00015817653462098333,
  "ndcg": 0.18188191380988447
 },
 "123": {
  "map": 0.0006141826061022643,
  "ndcg": 0.27910309926673466
 },
 "124": {
  "map": 0.00019652189132203347,
  "ndcg": 0.23867479272231767
 },
 "125": {
  "map": 0.0005409754017470266,
  "ndcg": 0.2947812224774271
 },
 "126": {
  "map": 0.0012018971994785946,
  "ndcg": 0.3522515575442493
 },
 "127": {
  "map": 0.0008553830497186702,
  "ndcg": 0.33811010462521535
 },
 "128": {
  "map": 0.00038736645226277984,
  "ndcg": 0.2553630229980433
 },
 "129": {
  "map": 0.0007898471994198797,
  "ndcg": 0.33720251683429053
 },
 "130": {
  "map": 0.0010225800131419942,
  "ndcg": 0.3612364060463758
 },
 "131": {
  "map": 4.5365867310368425e-05,
  "ndcg": 0.11355131093397731
 },
 "132": {
  "map": 0.0006805822473739259,
  "ndcg": 0.32103582333824726
 },
 "133": {
  "map": 4.924689210687558e-05,
  "ndcg": 0.1438280556901124
 },
 "134": {
  "map": 8.558068702042237e-05,
  "ndcg": 0.13089276889792703
 },
 "135": {
  "map": 0.13658912942372017,
  "ndcg": 0.627875040768152
 },
 "136": {
  "map": 4.394694033836196e-05,
  "ndcg": 0.1309251177021406
 },
 "137": {
  "map": 0.00031830715445982973,
  "ndcg": 0.24982913141048219
 },
 "138": {
  "map": 0.00017922563220110888,
  "ndcg": 0.21380593584104082
 },
 "139": {
  "map": 0.00023701606071061516,
  "ndcg": 0.23425175868273032
 },
 "140": {
  "map": 0.00029032447333277993,
  "ndcg": 0.20402723978391407
 },
 "141": {
  "map": 0.00040710439836468205,
  "ndcg": 0.20529360515263104
 },
 "142": {
  "map": 0.09898792274138705,
  "ndcg": 0.6533056914783644
 },
 "143": {
  "map": 0.0019224693001920461,
  "ndcg": 0.391454626793674
 },
 "144": {
  "map": 0.00022998086899743292,
  "ndcg": 0.22564098176031308
 },
 "145": {
  "map": 0.0005209796628284112,
  "ndcg": 0.2957521752695731
 },
 "146": {
  "map": 0.002703655112414079,
  "ndcg": 0.41626610019389765
 },
 "147": {
  "map": 0.0007579896968312784,
  "ndcg": 0.31491409148201494
 },
 "148": {
  "map": 0.0016033293667972119,
  "ndcg": 0.3774135204446224
 },
 "149": {
  "map": 0.029191179214659357,
  "ndcg": 0.3686152571341358
 },
 "150": {
  "map": 0.0010517857192712695,
  "ndcg": 0.3633882677074468
 },
 "151": {
  "map": 0.00032888317973072333,
  "ndcg": 0.26992372258029645
 },
 "152": {
  "map": 0.0013275587487112865,
  "ndcg": 0.3874116297980059
 },
 "153": {
  "map": 0.00021952589727386945,
  "ndcg": 0.21879914714397136
 },
 "154": {
  "map": 0.0017644522974564136,
  "ndcg": 0.41804835789165723
 },
 "155": {
  "map": 0.000139425938172294,
  "ndcg": 0.19386873245807118
 },
 "156": {
  "map": 0.0037677509857244945,
  "ndcg": 0.4354872154760523
 },
 "157": {
  "map": 8.285342853371981e-05,
  "ndcg": 0.17069961407077233
 },
 "158": {
  "map": 4.085519807355377e-05,
  "ndcg": 0.10637328277901655
 },
 "159": {
  "map": 3.7794028795082934e-05,
  "ndcg": 0.10550716203435948
 },
 "160": {
  "map": 8.805938986412462e-05,
  "ndcg": 0.18271718293945
 },
 "161": {
  "map": 0.0005481745692647187,
  "ndcg": 0.3118609566213394
 },
 "162": {
  "map": 0.0012811988997885506,
  "ndcg": 0.314930256108724
 },
 "163": {
  "map": 0.0003790240006238115,
  "ndcg": 0.2734573115727389
 },
 "164": {
  "map": 0.00022204218882751305,
  "ndcg": 0.21560225313357842
 },
 "165": {
  "map": 9.643432028506742e-05,
  "ndcg": 0.18231679191570072
 },
 "166": {
  "map": 7.451357194142816e-05,
  "ndcg": 0.1664907379114241
 },
 "167": {
  "map": 0.0002489776790287866,
  "ndcg": 0.24849540797147512
 },
 "168": {
  "map": 0.003139290712424192,
  "ndcg": 0.31285731016164975
 },
 "169": {
  "map": 0.000134636013681345,
  "ndcg": 0.2017599303496352
 },
 "170": {
  "map": 2.1873800689857172e-05,
  "ndcg": 0.0859567366288326
 },
 "171": {
  "map": 4.0418750877807474e-05,
  "ndcg": 0.11741372238612469
 },
 "172": {
  "map": 0.0012636131373982824,
  "ndcg": 0.17196365635939226
 },
 "173": {
  "map": 0.000915526488772152,
  "ndcg": 0.3534069823696126
 },
 "174": {
  "map": 0.00033174738687857434,
  "ndcg": 0.2716655382581168
 },
 "175": {
  "map": 0.00031116767221415597,
  "ndcg": 0.2608119391631973
 },
 "176": {
  "map": 0.0008515947093141011,
  "ndcg": 0.328523917184127
 },
 "177": {
  "map": 0.0003089472974116065,
  "ndcg": 0.2689896880003756
 },
 "178": {
  "map": 0.00024342924137652673,
  "ndcg": 0.21132081031186362
 },
 "179": {
  "map": 0.03820119897909626,
  "ndcg": 0.41851557194669914
 },
 "180": {
  "map": 0.002598204664248425,
  "ndcg": 0.3643973516213369
 },
 "181": {
  "map": 5.942480138826526e-05,
  "ndcg": 0.1359327761536784
 },
 "182": {
  "map": 0.09914301047410336,
  "ndcg": 0.5575393575687358
 },
 "183": {
  "map": 0.00039921609826389055,
  "ndcg": 0.2606917490508956
 },
 "184": {
  "map": 0.0002073309772328406,
  "ndcg": 0.2268427529350308
 },
 "185": {
  "map": 0.0004968960996533282,
  "ndcg": 0.29607904127380275
 },
 "186": {
  "map": 0.00020221588556024655,
  "ndcg": 0.22467336044850644
 },
 "187": {
  "map": 0.0025720997273347263,
  "ndcg": 0.3551187886063406
 },
 "188": {
  "map": 0.0005009326081843056,
  "ndcg": 0.2710659739142987
 },
 "189": {
  "map": 0.004145349286541058,
  "ndcg": 0.4876795247621912
 },
 "190": {
  "map": 0.00015451556015693094,
  "ndcg": 0.20287755354490564
 },
 "191": {
  "map": 0.001376545880039282,
  "ndcg": 0.3414967675466176
 },
 "192": {
  "map": 0.0006308795208581444,
  "ndcg": 0.3314061514727065
 },
 "193": {
  "map": 0.0006025145402794036,
  "ndcg": 0.3101536494335043
 },
 "194": {
  "map": 0.00036824444766139644,
  "ndcg": 0.2710975397398454
 },
 "195": {
  "map": 0.0018622212805631763,
  "ndcg": 0.36234765045259326
 },
 "196": {
  "map": 0.0002845674614030828,
  "ndcg": 0.208975371253632
 },
 "197": {
  "map": 0.02309711560621244,
  "ndcg": 0.42223569315297144
 },
 "198": {
  "map": 0.00030051987605227636,
  "ndcg": 0.26403427492036424
 },
 "199": {
  "map": 0.00020429751545933232,
  "ndcg": 0.17234901056073929
 },
 "200": {
  "map": 0.00014766090762381406,
  "ndcg": 0.21283111103224875
 },
 "51": {
  "map": 0.000203028573288374,
  "ndcg": 0.2103289122574893
 },
 "52": {
  "map": 0.0012496493548447161,
  "ndcg": 0.3798600653175365
 },
 "53": {
  "map": 0.0014552212508438388,
  "ndcg": 0.3837406886929783
 },
 "54": {
  "map": 0.0006521144687698422,
  "ndcg": 0.29856590622147267
 },
 "55": {
  "map": 0.0009349811044425843,
  "ndcg": 0.3614424454436166
 },
 "56": {
  "map": 0.0044109580072872355,
  "ndcg": 0.43480239932985293
 },
 "57": {
  "map": 0.02565151885221891,
  "ndcg": 0.3492476702674441
 },
 "58": {
  "map": 0.000543913991192883,
  "ndcg": 0.29596798382104683
 },
 "59": {
  "map": 0.07472418062137982,
  "ndcg": 0.6499618376298671
 },
 "60": {
  "map": 0.0006264229640748028,
  "ndcg": 0.15135437506701274
 },
 "61": {
  "map": 0.00024412537173370964,
  "ndcg": 0.25280702834305857
 },
 "62": {
  "map": 0.0010499825407183202,
  "ndcg": 0.36388811478519456
 },
 "63": {
  "map": 3.640113738711611e-05,
  "ndcg": 0.10542059009784997
 },
 "64": {
  "map": 0.004774107242347997,
  "ndcg": 0.4368866305947887
 },
 "66": {
  "map": 1.1528597228483453e-05,
  "ndcg": 0.07241483088481002
 },
 "67": {
  "map": 0.0028720604622572616,
  "ndcg": 0.43624457970597025
 },
 "68": {
  "map": 0.00021081624839811532,
  "ndcg": 0.23137018369500734
 },
 "69": {
  "map": 0.00026671191047605917,
  "ndcg": 0.179313199949078
 },
 "70": {
  "map": 0.00014131528804283436,
  "ndcg": 0.21260863585705245
 },
 "71": {
  "map": 0.0014527584051447398,
  "ndcg": 0.3909586849700688
 },
 "72": {
  "map": 0.00022254688791679684,
  "ndcg": 0.2298757479550391
 },
 "73": {
  "map": 0.0004881622138555583,
  "ndcg": 0.29684787650946465
 },
 "74": {
  "map": 0.0008205646667354107,
  "ndcg": 0.34308162446794427
 },
 "75": {
  "map": 0.0001253925361170148,
  "ndcg": 0.15757514614441298
 },
 "76": {
  "map": 0.0002816581513460429,
  "ndcg": 0.2582993658829695
 },
 "77": {
  "map": 0.000957568567161581,
  "ndcg": 0.32339847305104097
 },
 "78": {
  "map": 0.006406455544493705,
  "ndcg": 0.3852626720459951
 },
 "79": {
  "map": 0.0005549252642463277,
  "ndcg": 0.308558133731693
 },
 "80": {
  "map": 0.0006724200817879952,
  "ndcg": 0.32894617308844043
 },
 "81": {
  "map": 0.00018507070809922418,
  "ndcg": 0.23316298036835742
 },
 "82": {
  "map": 0.0005484615631464631,
  "ndcg": 0.3092038483433618
 },
 "83": {
  "map": 0.0014198587213321728,
  "ndcg": 0.3775517586572168
 },
 "84": {
  "map": 0.0001021796388980182,
  "ndcg": 0.1789672582465274
 },
 "85": {
  "map": 0.002601950702681146,
  "ndcg": 0.448997254700817
 },
 "86": {
  "map": 0.00014348448284612488,
  "ndcg": 0.17418894046765823
 },
 "87": {
  "map": 0.0002767037925476443,
  "ndcg": 0.24205996507037844
 },
 "88": {
  "map": 0.00024592666738763115,
  "ndcg": 0.25242079216671154
 },
 "89": {
  "map": 0.04799513800116817,
  "ndcg": 0.4707784451067217
 },
 "90": {
  "map": 0.00013429483115523364,
  "ndcg": 0.1948375174398044
 },
 "91": {
  "map": 0.00011012651272252813,
  "ndcg": 0.1168768871187925
 },
 "92": {
  "map": 0.00021067743645131063,
  "ndcg": 0.23005326413820615
 },
 "93": {
  "map": 0.0006890443013371326,
  "ndcg": 0.3254438212882706
 },
 "94": {
  "map": 0.0018263538606748655,
  "ndcg": 0.2888693402361359
 },
 "95": {
  "map": 0.006488357218993354,
  "ndcg": 0.29958311768988527
 },
 "96": {
  "map": 6.935355690283746e-05,
  "ndcg": 0.14368001728111593
 },
 "97": {
  "map": 9.480804359940319e-05,
  "ndcg": 0.17339819015577418
 },
 "98": {
  "map": 7.737571026674494e-05,
  "ndcg": 0.1649430274549866
 },
 "99": {
  "map": 0.0006948251198476041,
  "ndcg": 0.335122502024412
 },
 "100": {
  "map": 0.0001949328161160703,
  "ndcg": 0.22428581661504873
 }
}